<?xml version="1.0" encoding="UTF-8"?>
<svg width="45px" height="45px" viewBox="0 0 45 45" version="1.1" xmlns="http://www.w3.org/2000/svg" xmlns:xlink="http://www.w3.org/1999/xlink">
    <!-- Generator: Sketch 42 (36781) - http://www.bohemiancoding.com/sketch -->
    <title>Twitter / Dark</title>
    <desc>Created with Sketch.</desc>
    <defs></defs>
    <g id="Symbols" stroke="none" stroke-width="1" fill="none" fill-rule="evenodd">
        <g id="Twitter-/-Dark">
            <g id="Group-4">
                <circle id="Oval-Copy-4" stroke="#666666" cx="22.5" cy="22.5" r="22.5"></circle>
                <path d="M15,26.8051214 C16.3619175,27.6827235 17.9790931,28.1881078 19.7175502,28.1881078 C25.3791508,28.1881078 28.4749334,23.4991897 28.4749334,19.4345062 C28.4749334,19.2997191 28.4719621,19.1662825 28.4671001,19.0344666 C29.0667543,18.6001225 29.589696,18.0590831 30,17.4440323 C29.450587,17.6882158 28.856065,17.8532558 28.2331809,17.9272672 C28.8690305,17.5461356 29.356047,16.9440503 29.587265,16.2233847 C28.993013,16.5783152 28.3328531,16.8335734 27.6302852,16.9702514 C27.0703378,16.3738385 26.2716092,16 25.3842829,16 C23.6860729,16 22.3082187,17.3778542 22.3082187,19.0763344 C22.3082187,19.3194374 22.3341497,19.5528164 22.3862818,19.7789023 C19.8307282,19.6497875 17.5614961,18.4250882 16.0445329,16.5626486 C15.780631,17.0177915 15.6282864,17.5461356 15.6282864,18.1090542 C15.6282864,19.1770871 16.1733775,20.1200569 16.9985774,20.6705503 C16.4942736,20.6540733 16.0172513,20.5179356 15.6045163,20.2859072 L15.6018152,20.3261543 C15.6018152,21.8171865 16.664986,23.0605237 18.0722826,23.341983 C17.813783,23.412753 17.5406973,23.4497587 17.2616689,23.4497587 C17.0615141,23.4497587 16.8700029,23.4311208 16.6828135,23.3946553 C17.0744796,24.6169236 18.2108514,25.5064107 19.5579126,25.5323417 C18.5025751,26.3586221 17.1776633,26.8499604 15.7339012,26.8499604 C15.4862062,26.8499604 15.2412123,26.8340236 15,26.8051214" id="Path" fill="#666666"></path>
            </g>
        </g>
    </g>
</svg>